[
    {
        "key": "Enterprise",
        "bar": true,
        "values": [
            {
                "y": 2002,
                "x": 1443705864297
            },
            {
                "y": 1498,
                "x": 1443790348697
            },
            {
                "y": 2797,
                "x": 1443874833097
            },
            {
                "y": 1239,
                "x": 1443959317497
            },
            {
                "y": 1965,
                "x": 1444043801897
            },
            {
                "y": 2191,
                "x": 1444128286297
            },
            {
                "y": 2108,
                "x": 1444212770697
            },
            {
                "y": 1409,
                "x": 1444297255097
            },
            {
                "y": 1291,
                "x": 1444381739497
            },
            {
                "y": 1509,
                "x": 1444466223897
            },
            {
                "y": 1608,
                "x": 1444550708297
            },
            {
                "y": 1279,
                "x": 1444635192697
            },
            {
                "y": 1803,
                "x": 1444719677097
            },
            {
                "y": 1820,
                "x": 1444804161497
            },
            {
                "y": 2198,
                "x": 1444888645897
            },
            {
                "y": 1216,
                "x": 1444973130297
            },
            {
                "y": 2903,
                "x": 1445057614697
            },
            {
                "y": 2309,
                "x": 1445142099097
            },
            {
                "y": 3092,
                "x": 1445226583497
            },
            {
                "y": 2703,
                "x": 1445311067897
            },
            {
                "y": 1509,
                "x": 1445395552297
            },
            {
                "y": 2360,
                "x": 1445480036697
            },
            {
                "y": 2787,
                "x": 1445564521097
            },
            {
                "y": 3109,
                "x": 1445649005497
            },
            {
                "y": 2384,
                "x": 1445733489897
            },
            {
                "y": 3102,
                "x": 1445817974297
            },
            {
                "y": 3500,
                "x": 1445902458697
            },
            {
                "y": 2309,
                "x": 1445986943097
            }
        ]
    }
]