{
  "type": "AlertsResponse",
  "count": 9,
  "totalCount":9,
  "list": [
    {
      "type": "AlertConfiguration",
      "alertId": 21,
      "accountId": 1,
      "alertType": "ZONE_CUMULATIVE",
      "zoneId": 1,
      "zoneName": "zone_1",
      "alertSpecification": {
        "enable": true,
        "limitValue": "$1000",
        "limitType": "COST",
        "triggerCount": 7,
        "actions": ["Email"]
      }
    },
    {
      "type": "AlertConfiguration",
      "alertId": 22,
      "accountId": 1,
      "alertType": "ZONE_CUMULATIVE",
      "zoneId": 1,
      "zoneName": "zone_1",
      "alertSpecification": {
        "enable": true,
        "limitValue": "$1500",
        "limitType": "COST",
        "triggerCount": 1,
        "actions": ["Email"]
      }
    },
    {
      "type": "AlertConfiguration",
      "alertId": 23,
      "accountId": 1,
      "alertType": "ZONE_CUMULATIVE",
      "zoneId": 1,
      "zoneName": "zone_1",
      "alertSpecification": {
        "enable": true,
        "limitValue": "$2000",
        "limitType": "COST",
        "triggerCount": 0,
        "actions": ["Disable"]
      }
    },
    {
      "type": "AlertConfiguration",
      "alertId": 24,
      "accountId": 1,
      "alertType": "ZONE_CUMULATIVE",
      "zoneId": 2,
      "zoneName": "zone_2",
      "alertSpecification": {
        "enable": true,
        "limitValue": "$1000",
        "limitType": "COST",
        "triggerCount": 7,
        "actions": ["Email"]
      }
    },
    {
      "type": "AlertConfiguration",
      "alertId": 25,
      "accountId": 1,
      "alertType": "ZONE_CUMULATIVE",
      "zoneId": 2,
      "zoneName": "zone_2",
      "alertSpecification": {
        "enable": true,
        "limitValue": "$1500",
        "limitType": "COST",
        "triggerCount": 1,
        "actions": ["Email"]
      }
    },
    {
      "type": "AlertConfiguration",
      "alertId": 26,
      "accountId": 1,
      "alertType": "ZONE_CUMULATIVE",
      "zoneId": 2,
      "zoneName": "zone_2",
      "alertSpecification": {
        "enable": true,
        "limitValue": "$2000",
        "limitType": "COST",
        "triggerCount": 0,
        "actions": ["Disable"]
      }
    },
    {
      "type": "AlertConfiguration",
      "alertId": 27,
      "accountId": 1,
      "alertType": "ZONE_CUMULATIVE",
      "zoneId": 3,
      "zoneName": "zone_3",
      "alertSpecification": {
        "enable": true,
        "limitValue": "$1000",
        "limitType": "COST",
        "triggerCount": 7,
        "actions": ["Email"]
      }
    },
    {
      "type": "AlertConfiguration",
      "alertId": 28,
      "accountId": 1,
      "alertType": "ZONE_CUMULATIVE",
      "zoneId": 4,
      "zoneName": "zone_4",
      "alertSpecification": {
        "enable": true,
        "limitValue": "$1500",
        "limitType": "COST",
        "triggerCount": 1,
        "actions": ["Email"]
      }
    },
    {
      "type": "AlertConfiguration",
      "alertId": 29,
      "accountId": 1,
      "alertType": "ZONE_CUMULATIVE",
      "zoneId": 3,
      "zoneName": "zone_3",
      "alertSpecification": {
        "enable": true,
        "limitValue": "$2000",
        "limitType": "COST",
        "triggerCount": 0,
        "actions": ["Disable"]
      }
    }
  ]
}